"AddonInfo"
{
	"name"				"ULib"
	"version"			"2.52d"
	"up_date"			"00/00/00"
	"author_name"			"Team Ulysses"
	"author_email"			"teamulysses@ulyssesmod.net"
	"author_url"			"http://www.ulyssesmod.net/"
	"info"				"Lua Library"
	"override"			"0"
}
